<svg width="1140" height="76" viewBox="0 0 1140 76" fill="none" xmlns="http://www.w3.org/2000/svg">
<path d="M378 29H505C530.957 29 552 50.0426 552 76H425C399.043 76 378 54.9574 378 29Z" fill="#B5CFFF"/>
<path d="M455.742 15.5625V44H452.031V15.5625H455.742ZM464.883 15.5625V18.6484H442.91V15.5625H464.883ZM479.371 44.3906C477.9 44.3906 476.565 44.1432 475.367 43.6484C474.182 43.1406 473.16 42.431 472.301 41.5195C471.454 40.6081 470.803 39.5273 470.348 38.2773C469.892 37.0273 469.664 35.6602 469.664 34.1758V33.3555C469.664 31.6367 469.918 30.1068 470.426 28.7656C470.934 27.4115 471.624 26.2656 472.496 25.3281C473.368 24.3906 474.358 23.681 475.465 23.1992C476.572 22.7174 477.717 22.4766 478.902 22.4766C480.413 22.4766 481.715 22.737 482.809 23.2578C483.915 23.7786 484.82 24.5078 485.523 25.4453C486.227 26.3698 486.747 27.4635 487.086 28.7266C487.424 29.9766 487.594 31.3438 487.594 32.8281V34.4492H471.812V31.5H483.98V31.2266C483.928 30.2891 483.733 29.3776 483.395 28.4922C483.069 27.6068 482.548 26.8776 481.832 26.3047C481.116 25.7318 480.139 25.4453 478.902 25.4453C478.082 25.4453 477.327 25.6211 476.637 25.9727C475.947 26.3112 475.354 26.819 474.859 27.4961C474.365 28.1732 473.98 29 473.707 29.9766C473.434 30.9531 473.297 32.0794 473.297 33.3555V34.1758C473.297 35.1784 473.434 36.1224 473.707 37.0078C473.993 37.8802 474.404 38.6484 474.938 39.3125C475.484 39.9766 476.142 40.4974 476.91 40.875C477.691 41.2526 478.577 41.4414 479.566 41.4414C480.842 41.4414 481.923 41.181 482.809 40.6602C483.694 40.1393 484.469 39.4427 485.133 38.5703L487.32 40.3086C486.865 40.9987 486.285 41.6562 485.582 42.2812C484.879 42.9062 484.013 43.4141 482.984 43.8047C481.969 44.1953 480.764 44.3906 479.371 44.3906ZM504.27 41.4219C505.129 41.4219 505.923 41.2461 506.652 40.8945C507.382 40.543 507.98 40.0612 508.449 39.4492C508.918 38.8242 509.185 38.1146 509.25 37.3203H512.688C512.622 38.5703 512.199 39.7357 511.418 40.8164C510.65 41.8841 509.641 42.75 508.391 43.4141C507.141 44.0651 505.767 44.3906 504.27 44.3906C502.681 44.3906 501.294 44.1107 500.109 43.5508C498.938 42.9909 497.961 42.2227 497.18 41.2461C496.411 40.2695 495.832 39.1497 495.441 37.8867C495.064 36.6107 494.875 35.263 494.875 33.8438V33.0234C494.875 31.6042 495.064 30.263 495.441 29C495.832 27.724 496.411 26.5977 497.18 25.6211C497.961 24.6445 498.938 23.8763 500.109 23.3164C501.294 22.7565 502.681 22.4766 504.27 22.4766C505.923 22.4766 507.368 22.8151 508.605 23.4922C509.842 24.1562 510.812 25.0677 511.516 26.2266C512.232 27.3724 512.622 28.6745 512.688 30.1328H509.25C509.185 29.2604 508.938 28.4727 508.508 27.7695C508.091 27.0664 507.518 26.5065 506.789 26.0898C506.073 25.6602 505.233 25.4453 504.27 25.4453C503.163 25.4453 502.232 25.6667 501.477 26.1094C500.734 26.5391 500.142 27.125 499.699 27.8672C499.27 28.5964 498.957 29.4102 498.762 30.3086C498.579 31.194 498.488 32.099 498.488 33.0234V33.8438C498.488 34.7682 498.579 35.6797 498.762 36.5781C498.944 37.4766 499.25 38.2904 499.68 39.0195C500.122 39.7487 500.715 40.3346 501.457 40.7773C502.212 41.207 503.15 41.4219 504.27 41.4219ZM524.363 27.3789V44H520.75V22.8672H524.168L524.363 27.3789ZM523.504 32.6328L522 32.5742C522.013 31.1289 522.228 29.7943 522.645 28.5703C523.061 27.3333 523.647 26.2591 524.402 25.3477C525.158 24.4362 526.056 23.7331 527.098 23.2383C528.152 22.7305 529.318 22.4766 530.594 22.4766C531.635 22.4766 532.573 22.6198 533.406 22.9062C534.24 23.1797 534.949 23.6224 535.535 24.2344C536.134 24.8464 536.59 25.6406 536.902 26.6172C537.215 27.5807 537.371 28.7591 537.371 30.1523V44H533.738V30.1133C533.738 29.0065 533.576 28.1211 533.25 27.457C532.924 26.7799 532.449 26.2917 531.824 25.9922C531.199 25.6797 530.431 25.5234 529.52 25.5234C528.621 25.5234 527.801 25.7122 527.059 26.0898C526.329 26.4674 525.698 26.9883 525.164 27.6523C524.643 28.3164 524.233 29.0781 523.934 29.9375C523.647 30.7839 523.504 31.6823 523.504 32.6328ZM545.902 33.668V33.2188C545.902 31.6953 546.124 30.2826 546.566 28.9805C547.009 27.6654 547.647 26.526 548.48 25.5625C549.314 24.5859 550.323 23.8307 551.508 23.2969C552.693 22.75 554.021 22.4766 555.492 22.4766C556.977 22.4766 558.311 22.75 559.496 23.2969C560.694 23.8307 561.71 24.5859 562.543 25.5625C563.389 26.526 564.034 27.6654 564.477 28.9805C564.919 30.2826 565.141 31.6953 565.141 33.2188V33.668C565.141 35.1914 564.919 36.6042 564.477 37.9062C564.034 39.2083 563.389 40.3477 562.543 41.3242C561.71 42.2878 560.701 43.043 559.516 43.5898C558.344 44.1237 557.016 44.3906 555.531 44.3906C554.047 44.3906 552.712 44.1237 551.527 43.5898C550.342 43.043 549.327 42.2878 548.48 41.3242C547.647 40.3477 547.009 39.2083 546.566 37.9062C546.124 36.6042 545.902 35.1914 545.902 33.668ZM549.516 33.2188V33.668C549.516 34.7227 549.639 35.7188 549.887 36.6562C550.134 37.5807 550.505 38.401 551 39.1172C551.508 39.8333 552.139 40.3997 552.895 40.8164C553.65 41.2201 554.529 41.4219 555.531 41.4219C556.521 41.4219 557.387 41.2201 558.129 40.8164C558.884 40.3997 559.509 39.8333 560.004 39.1172C560.499 38.401 560.87 37.5807 561.117 36.6562C561.378 35.7188 561.508 34.7227 561.508 33.668V33.2188C561.508 32.1771 561.378 31.194 561.117 30.2695C560.87 29.332 560.492 28.5052 559.984 27.7891C559.49 27.0599 558.865 26.487 558.109 26.0703C557.367 25.6536 556.495 25.4453 555.492 25.4453C554.503 25.4453 553.63 25.6536 552.875 26.0703C552.133 26.487 551.508 27.0599 551 27.7891C550.505 28.5052 550.134 29.332 549.887 30.2695C549.639 31.194 549.516 32.1771 549.516 33.2188ZM577.598 14V44H573.965V14H577.598ZM586.441 33.668V33.2188C586.441 31.6953 586.663 30.2826 587.105 28.9805C587.548 27.6654 588.186 26.526 589.02 25.5625C589.853 24.5859 590.862 23.8307 592.047 23.2969C593.232 22.75 594.56 22.4766 596.031 22.4766C597.516 22.4766 598.85 22.75 600.035 23.2969C601.233 23.8307 602.249 24.5859 603.082 25.5625C603.928 26.526 604.573 27.6654 605.016 28.9805C605.458 30.2826 605.68 31.6953 605.68 33.2188V33.668C605.68 35.1914 605.458 36.6042 605.016 37.9062C604.573 39.2083 603.928 40.3477 603.082 41.3242C602.249 42.2878 601.24 43.043 600.055 43.5898C598.883 44.1237 597.555 44.3906 596.07 44.3906C594.586 44.3906 593.251 44.1237 592.066 43.5898C590.882 43.043 589.866 42.2878 589.02 41.3242C588.186 40.3477 587.548 39.2083 587.105 37.9062C586.663 36.6042 586.441 35.1914 586.441 33.668ZM590.055 33.2188V33.668C590.055 34.7227 590.178 35.7188 590.426 36.6562C590.673 37.5807 591.044 38.401 591.539 39.1172C592.047 39.8333 592.678 40.3997 593.434 40.8164C594.189 41.2201 595.068 41.4219 596.07 41.4219C597.06 41.4219 597.926 41.2201 598.668 40.8164C599.423 40.3997 600.048 39.8333 600.543 39.1172C601.038 38.401 601.409 37.5807 601.656 36.6562C601.917 35.7188 602.047 34.7227 602.047 33.668V33.2188C602.047 32.1771 601.917 31.194 601.656 30.2695C601.409 29.332 601.031 28.5052 600.523 27.7891C600.029 27.0599 599.404 26.487 598.648 26.0703C597.906 25.6536 597.034 25.4453 596.031 25.4453C595.042 25.4453 594.169 25.6536 593.414 26.0703C592.672 26.487 592.047 27.0599 591.539 27.7891C591.044 28.5052 590.673 29.332 590.426 30.2695C590.178 31.194 590.055 32.1771 590.055 33.2188ZM627.902 22.8672H631.184V43.5508C631.184 45.4128 630.806 47.0013 630.051 48.3164C629.296 49.6315 628.241 50.6276 626.887 51.3047C625.546 51.9948 623.996 52.3398 622.238 52.3398C621.509 52.3398 620.65 52.2227 619.66 51.9883C618.684 51.7669 617.72 51.3828 616.77 50.8359C615.832 50.3021 615.044 49.5794 614.406 48.668L616.301 46.5195C617.186 47.5872 618.111 48.3294 619.074 48.7461C620.051 49.1628 621.014 49.3711 621.965 49.3711C623.111 49.3711 624.1 49.1562 624.934 48.7266C625.767 48.2969 626.411 47.6589 626.867 46.8125C627.336 45.9792 627.57 44.9505 627.57 43.7266V27.5156L627.902 22.8672ZM613.352 33.668V33.2578C613.352 31.6432 613.54 30.1784 613.918 28.8633C614.309 27.5352 614.862 26.3958 615.578 25.4453C616.307 24.4948 617.186 23.7656 618.215 23.2578C619.243 22.737 620.402 22.4766 621.691 22.4766C623.02 22.4766 624.178 22.7109 625.168 23.1797C626.171 23.6354 627.017 24.306 627.707 25.1914C628.41 26.0638 628.964 27.1185 629.367 28.3555C629.771 29.5924 630.051 30.9922 630.207 32.5547V34.3516C630.064 35.901 629.784 37.2943 629.367 38.5312C628.964 39.7682 628.41 40.8229 627.707 41.6953C627.017 42.5677 626.171 43.2383 625.168 43.707C624.165 44.1628 622.993 44.3906 621.652 44.3906C620.389 44.3906 619.243 44.1237 618.215 43.5898C617.199 43.056 616.327 42.3073 615.598 41.3438C614.868 40.3802 614.309 39.2474 613.918 37.9453C613.54 36.6302 613.352 35.2044 613.352 33.668ZM616.965 33.2578V33.668C616.965 34.7227 617.069 35.7122 617.277 36.6367C617.499 37.5612 617.831 38.375 618.273 39.0781C618.729 39.7812 619.309 40.3346 620.012 40.7383C620.715 41.1289 621.555 41.3242 622.531 41.3242C623.729 41.3242 624.719 41.0703 625.5 40.5625C626.281 40.0547 626.9 39.3841 627.355 38.5508C627.824 37.7174 628.189 36.8125 628.449 35.8359V31.1289C628.306 30.4128 628.085 29.7227 627.785 29.0586C627.499 28.3815 627.121 27.7826 626.652 27.2617C626.197 26.7279 625.63 26.3047 624.953 25.9922C624.276 25.6797 623.482 25.5234 622.57 25.5234C621.581 25.5234 620.728 25.7318 620.012 26.1484C619.309 26.5521 618.729 27.112 618.273 27.8281C617.831 28.5312 617.499 29.3516 617.277 30.2891C617.069 31.2135 616.965 32.2031 616.965 33.2578ZM644.598 22.8672V44H640.965V22.8672H644.598ZM640.691 17.2617C640.691 16.6758 640.867 16.181 641.219 15.7773C641.583 15.3737 642.117 15.1719 642.82 15.1719C643.51 15.1719 644.038 15.3737 644.402 15.7773C644.78 16.181 644.969 16.6758 644.969 17.2617C644.969 17.8216 644.78 18.3034 644.402 18.707C644.038 19.0977 643.51 19.293 642.82 19.293C642.117 19.293 641.583 19.0977 641.219 18.707C640.867 18.3034 640.691 17.8216 640.691 17.2617ZM666.859 40.3867V29.5078C666.859 28.6745 666.69 27.9518 666.352 27.3398C666.026 26.7148 665.531 26.2331 664.867 25.8945C664.203 25.556 663.383 25.3867 662.406 25.3867C661.495 25.3867 660.694 25.543 660.004 25.8555C659.327 26.168 658.793 26.5781 658.402 27.0859C658.025 27.5938 657.836 28.1406 657.836 28.7266H654.223C654.223 27.9714 654.418 27.2227 654.809 26.4805C655.199 25.7383 655.759 25.0677 656.488 24.4688C657.23 23.8568 658.116 23.375 659.145 23.0234C660.186 22.6589 661.345 22.4766 662.621 22.4766C664.158 22.4766 665.512 22.737 666.684 23.2578C667.868 23.7786 668.793 24.5664 669.457 25.6211C670.134 26.6628 670.473 27.9714 670.473 29.5469V39.3906C670.473 40.0938 670.531 40.8424 670.648 41.6367C670.779 42.431 670.967 43.1146 671.215 43.6875V44H667.445C667.263 43.5833 667.12 43.0299 667.016 42.3398C666.911 41.6367 666.859 40.9857 666.859 40.3867ZM667.484 31.1875L667.523 33.7266H663.871C662.842 33.7266 661.924 33.8112 661.117 33.9805C660.31 34.1367 659.633 34.3776 659.086 34.7031C658.539 35.0286 658.122 35.4388 657.836 35.9336C657.549 36.4154 657.406 36.9818 657.406 37.6328C657.406 38.2969 657.556 38.9023 657.855 39.4492C658.155 39.9961 658.604 40.4323 659.203 40.7578C659.815 41.0703 660.564 41.2266 661.449 41.2266C662.556 41.2266 663.533 40.9922 664.379 40.5234C665.225 40.0547 665.896 39.4818 666.391 38.8047C666.898 38.1276 667.172 37.4701 667.211 36.832L668.754 38.5703C668.663 39.1172 668.415 39.7227 668.012 40.3867C667.608 41.0508 667.068 41.6888 666.391 42.3008C665.727 42.8997 664.932 43.401 664.008 43.8047C663.096 44.1953 662.068 44.3906 660.922 44.3906C659.49 44.3906 658.233 44.1107 657.152 43.5508C656.085 42.9909 655.251 42.2422 654.652 41.3047C654.066 40.3542 653.773 39.293 653.773 38.1211C653.773 36.9883 653.995 35.9922 654.438 35.1328C654.88 34.2604 655.518 33.5378 656.352 32.9648C657.185 32.3789 658.188 31.9362 659.359 31.6367C660.531 31.3372 661.84 31.1875 663.285 31.1875H667.484ZM692.461 38.3945C692.461 37.8737 692.344 37.3919 692.109 36.9492C691.888 36.4935 691.426 36.0833 690.723 35.7188C690.033 35.3411 688.991 35.0156 687.598 34.7422C686.426 34.4948 685.365 34.2018 684.414 33.8633C683.477 33.5247 682.676 33.1146 682.012 32.6328C681.361 32.151 680.859 31.5846 680.508 30.9336C680.156 30.2826 679.98 29.5208 679.98 28.6484C679.98 27.8151 680.163 27.0273 680.527 26.2852C680.905 25.543 681.432 24.8854 682.109 24.3125C682.799 23.7396 683.626 23.2904 684.59 22.9648C685.553 22.6393 686.628 22.4766 687.812 22.4766C689.505 22.4766 690.951 22.776 692.148 23.375C693.346 23.974 694.264 24.7747 694.902 25.7773C695.54 26.7669 695.859 27.8672 695.859 29.0781H692.246C692.246 28.4922 692.07 27.9258 691.719 27.3789C691.38 26.819 690.879 26.3568 690.215 25.9922C689.564 25.6276 688.763 25.4453 687.812 25.4453C686.81 25.4453 685.996 25.6016 685.371 25.9141C684.759 26.2135 684.31 26.5977 684.023 27.0664C683.75 27.5352 683.613 28.0299 683.613 28.5508C683.613 28.9414 683.678 29.293 683.809 29.6055C683.952 29.9049 684.199 30.1849 684.551 30.4453C684.902 30.6927 685.397 30.9271 686.035 31.1484C686.673 31.3698 687.487 31.5911 688.477 31.8125C690.208 32.2031 691.634 32.6719 692.754 33.2188C693.874 33.7656 694.707 34.4362 695.254 35.2305C695.801 36.0247 696.074 36.9883 696.074 38.1211C696.074 39.0456 695.879 39.8919 695.488 40.6602C695.111 41.4284 694.557 42.0924 693.828 42.6523C693.112 43.1992 692.253 43.6289 691.25 43.9414C690.26 44.2409 689.147 44.3906 687.91 44.3906C686.048 44.3906 684.473 44.0586 683.184 43.3945C681.895 42.7305 680.918 41.8711 680.254 40.8164C679.59 39.7617 679.258 38.6484 679.258 37.4766H682.891C682.943 38.4661 683.229 39.2539 683.75 39.8398C684.271 40.4128 684.909 40.8229 685.664 41.0703C686.419 41.3047 687.168 41.4219 687.91 41.4219C688.9 41.4219 689.727 41.2917 690.391 41.0312C691.068 40.7708 691.582 40.4128 691.934 39.957C692.285 39.5013 692.461 38.9805 692.461 38.3945Z" fill="#12242F"/>
</svg>
